…
```r
clean_names(wolves)
```

```
## # A tibble: 1,986 × 23
##    pop     year age_cat sex   color   lat  long habitat human pop_dens…¹ pack_…²
##    <chr>  <dbl> <chr>   <chr> <chr> <dbl> <dbl>   <dbl> <dbl>      <dbl>   <dbl>
##  1 AK.PEN  2006 S       F     G      57.0 -158.    254.  10.4          8    8.78
##  2 AK.PEN  2006 S       M     G      57.0 -158.    254.  10.4          8    8.78
##  3 AK.PEN  2006 A       F     G      57.0 -158.    254.  10.4          8    8.78
##  4 AK.PEN  2006 S       M     B      57.0 -158.    254.  10.4          8    8.78
##  5 AK.PEN  2006 A       M     B      57.0 -158.    254.  10.4          8    8.78
##  6 AK.PEN  2006 A       M     G      57.0 -158.    254.  10.4          8    8.78
##  7 AK.PEN  2006 A       F     G      57.0 -158.    254.  10.4          8    8.78
##  8 AK.PEN  2006 P       M     G      57.0 -158.    254.  10.4          8    8.78
##  9 AK.PEN  2006 S       F     G      57.0 -158.    254.  10.4          8    8.78
## 10 AK.PEN  2006 P       M     G      57.0 -158.    254.  10.4          8    8.78
## # … with 1,976 more rows, 12 more variables: standard_habitat <dbl>,
## #   standard_human <dbl>, standard_pop <dbl>, standard_packsize <dbl>,
## #   standard_latitude <dbl>, standard_longitude <dbl>, cav_binary <dbl>,
## #   cdv_binary <dbl>, cpv_binary <dbl>, chv_binary <dbl>, neo_binary <dbl>,
## #   toxo_binary <dbl>, and abbreviated variable names ¹​pop_density, ²​pack_size
```
…
```
## # A tibble: 1 × 1
##   n_pops
##    <int>
## 1     17
```

```r
naniar::miss_var_summary(wolves)
```

```
## # A tibble: 23 × 3
##    variable    n_miss pct_miss
##    <chr>        <int>    <dbl>
##  1 toxo.binary    827   41.6  
##  2 color          616   31.0  
##  3 chv.binary     548   27.6  
##  4 neo.binary     538   27.1  
##  5 cav.binary     321   16.2  
##  6 age.cat        102    5.14 
##  7 cdv.binary      21    1.06 
##  8 sex             19    0.957
##  9 cpv.binary       7    0.352
## 10 pop              0    0    
## # … with 13 more rows
```



```r
continental <- wolves %>% 
            filter(lat <= 48) %>% 
            filter(pop!="NA" & lat!="NA" & long!="NA")
continental
```

```
## # A tibble: 1,169 × 23
##    pop    year age.cat sex   color   lat  long habitat human pop.density pack.…¹
##    <chr> <dbl> <chr>   <chr> <chr> <dbl> <dbl>   <dbl> <dbl>       <dbl>   <dbl>
##  1 GTNP   2012 P       M     G      43.8 -111.  10375. 3924.        34.0     8.1
##  2 GTNP   2012 P       F     G      43.8 -111.  10375. 3924.        34.0     8.1
##  3 GTNP   2012 P       F     G      43.8 -111.  10375. 3924.        34.0     8.1
##  4 GTNP   2012 P       M     B      43.8 -111.  10375. 3924.        34.0     8.1
##  5 GTNP   2013 A       F     G      43.8 -111.  10375. 3924.        34.0     8.1
##  6 GTNP   2013 A       M     G      43.8 -111.  10375. 3924.        34.0     8.1
##  7 GTNP   2013 P       M     G      43.8 -111.  10375. 3924.        34.0     8.1
##  8 GTNP   2013 P       M     G      43.8 -111.  10375. 3924.        34.0     8.1
##  9 GTNP   2013 P       M     G      43.8 -111.  10375. 3924.        34.0     8.1
## 10 GTNP   2013 P       F     G      43.8 -111.  10375. 3924.        34.0     8.1
## # … with 1,159 more rows, 12 more variables: standard.habitat <dbl>,
## #   standard.human <dbl>, standard.pop <dbl>, standard.packsize <dbl>,
## #   standard.latitude <dbl>, standard.longitude <dbl>, cav.binary <dbl>,
## #   cdv.binary <dbl>, cpv.binary <dbl>, chv.binary <dbl>, neo.binary <dbl>,
## #   toxo.binary <dbl>, and abbreviated variable name ¹​pack.size
```
…
