…
4. Refocus the data only to include country, isscaap_taxonomic_group, asfis_species_name, asfis_species_number, year, catch.

```r
select(fisheries_tidy,"country", "isscaap_taxonomic_group", "asfis_species_name", "asfis_species_number", "year", "catch")
```

```
## # A tibble: 376,771 × 6
##    country isscaap_taxonomic_group asfis_species_name asfis_specie…¹  year catch
##    <fct>   <chr>                   <chr>              <fct>          <dbl> <dbl>
##  1 Albania Sharks, rays, chimaeras Squatinidae        10903XXXXX      1995    NA
##  2 Albania Sharks, rays, chimaeras Squatinidae        10903XXXXX      1996    53
##  3 Albania Sharks, rays, chimaeras Squatinidae        10903XXXXX      1997    20
##  4 Albania Sharks, rays, chimaeras Squatinidae        10903XXXXX      1998    31
##  5 Albania Sharks, rays, chimaeras Squatinidae        10903XXXXX      1999    30
##  6 Albania Sharks, rays, chimaeras Squatinidae        10903XXXXX      2000    30
##  7 Albania Sharks, rays, chimaeras Squatinidae        10903XXXXX      2001    16
##  8 Albania Sharks, rays, chimaeras Squatinidae        10903XXXXX      2002    79
##  9 Albania Sharks, rays, chimaeras Squatinidae        10903XXXXX      2003     1
## 10 Albania Sharks, rays, chimaeras Squatinidae        10903XXXXX      2004     4
## # … with 376,761 more rows, and abbreviated variable name ¹​asfis_species_number
```
…
6. Which country had the largest overall catch in the year 2000?


```r
fisheries_tidy %>% 
  filter(year == 2000) %>% 
  select("country", "catch", "year") %>% 
  arrange(-catch)
```

```
## # A tibble: 8,793 × 3
##    country                  catch  year
##    <fct>                    <dbl> <dbl>
##  1 China                     9068  2000
##  2 Peru                      5717  2000
##  3 Russian Federation        5065  2000
##  4 Viet Nam                  4945  2000
##  5 Chile                     4299  2000
##  6 China                     3288  2000
##  7 China                     2782  2000
##  8 United States of America  2438  2000
##  9 China                     1234  2000
## 10 Philippines                999  2000
## # … with 8,783 more rows
```
China had the biggest overall catch in 2000.

7. Which country caught the most sardines (_Sardina pilchardus_) between the years 1990-2000?

```r
fisheries_tidy %>% 
  filter(between(year,1990, 2000) & asfis_species_name =="Sardina pilchardus") %>% 
  group_by(country) %>% 
  select(country, year, catch) %>% 
  mutate(total_catch=sum(catch)) %>%
  arrange(desc(total_catch)) 
```

```
## # A tibble: 336 × 4
## # Groups:   country [37]
##    country  year catch total_catch
##    <fct>   <dbl> <dbl>       <dbl>
##  1 Morocco  1990   845        7470
##  2 Morocco  1991   827        7470
##  3 Morocco  1992   352        7470
##  4 Morocco  1993   710        7470
##  5 Morocco  1994   947        7470
##  6 Morocco  1995   152        7470
##  7 Morocco  1996   925        7470
##  8 Morocco  1997   496        7470
##  9 Morocco  1998   723        7470
## 10 Morocco  1999   171        7470
## # … with 326 more rows
```
…
8. Which five countries caught the most cephalopods between 2008-2012?

```r
fisheries_tidy %>% 
  filter(between(year,2008, 2012) & common_name =="Cephalopods nei") %>%
  group_by(country) %>% 
  select(country, year, catch) %>% 
  mutate(total_catch=sum(catch)) %>%
  arrange(desc(total_catch)) 
```

```
## # A tibble: 80 × 4
## # Groups:   country [16]
##    country  year catch total_catch
##    <fct>   <dbl> <dbl>       <dbl>
##  1 India    2008    13         570
##  2 India    2009    61         570
##  3 India    2010    93         570
##  4 India    2011    35         570
##  5 India    2012    88         570
##  6 India    2008     8         570
##  7 India    2009    62         570
##  8 India    2010    60         570
##  9 India    2011    94         570
## 10 India    2012    56         570
## # … with 70 more rows
```
…
9. Which species had the highest catch total between 2008-2012? (hint: Osteichthyes is not a species)


```r
fisheries_tidy %>% 
  filter(between(year,2008, 2012)) %>%
  group_by(asfis_species_name) %>% 
  select(asfis_species_name, year, catch) %>% 
  mutate(total_catch=sum(catch)) %>%
  arrange(desc(total_catch)) 
```

```
## # A tibble: 51,014 × 4
## # Groups:   asfis_species_name [1,472]
##    asfis_species_name     year catch total_catch
##    <chr>                 <dbl> <dbl>       <dbl>
##  1 Theragra chalcogramma  2008     2       41075
##  2 Theragra chalcogramma  2009     2       41075
##  3 Theragra chalcogramma  2010     6       41075
##  4 Theragra chalcogramma  2011     9       41075
##  5 Theragra chalcogramma  2012     1       41075
##  6 Theragra chalcogramma  2008    38       41075
##  7 Theragra chalcogramma  2009   261       41075
##  8 Theragra chalcogramma  2010   166       41075
##  9 Theragra chalcogramma  2011   920       41075
## 10 Theragra chalcogramma  2012   823       41075
## # … with 51,004 more rows
```
…
Which countries caught the most shrimp and lobsters between 1970-2000?


```r
fisheries_tidy %>% 
  filter(between(year,1970, 2000) & (isscaap_taxonomic_group  =="Shrimps, prawns"|isscaap_taxonomic_group =="Lobsters, spinyrock lobsters")) %>%
    group_by(country) %>% 
    select(country, year, catch) %>% 
    mutate(total_catch=sum(catch)) %>%
    arrange(desc(total_catch)) 
```

```
## # A tibble: 12,487 × 4
## # Groups:   country [157]
##    country  year catch total_catch
##    <fct>   <dbl> <dbl>       <dbl>
##  1 India    1988    91       18087
##  2 India    1989    13       18087
##  3 India    1990    73       18087
##  4 India    1991    10       18087
##  5 India    1992    67       18087
##  6 India    1993    11       18087
##  7 India    1994    59       18087
##  8 India    1995    61       18087
##  9 India    1996    51       18087
## 10 India    1997    89       18087
## # … with 12,477 more rows
```
…
