…
Problem 4. (2 points) Which habitat has the highest diversity (number of species) in the data?

```r
 ecosphere %>% 
  filter(habitat =="Grassland" | habitat =="Wetland"| habitat =="Woodland" |habitat == "Ocean" | habitat =="Shrubland") %>% 
  count(habitat, scientific_name)
```

```
## # A tibble: 492 × 3
##    habitat   scientific_name          n
##    <chr>     <chr>                <int>
##  1 Grassland Alauda arvensis          1
##  2 Grassland Ammodramus bairdii       1
##  3 Grassland Ammodramus henslowii     1
##  4 Grassland Anthus rubescens         1
##  5 Grassland Anthus spragueii         1
##  6 Grassland Asio flammeus            1
##  7 Grassland Athene cunicularia       1
##  8 Grassland Bubo scandiacus          1
##  9 Grassland Buteo albicaudatus       1
## 10 Grassland Buteo lagopus            1
## # … with 482 more rows
```
…
Problem 6. (2 points) The family Anatidae includes ducks, geese, and swans. Make a new object `ducks` that only includes species in the family Anatidae. Restrict this new dataframe to include all variables except order and family.

```r
  ducks <- ecosphere %>% 
  filter(family == "Anatidae") %>% 
  select(!order, !family) 
  ducks
```

```
## # A tibble: 44 × 21
##    family  commo…¹ scien…² diet  life_…³ habitat urban…⁴ migra…⁵ log10…⁶ mean_…⁷
##    <chr>   <chr>   <chr>   <chr> <chr>   <chr>   <chr>   <chr>     <dbl>   <dbl>
##  1 Anatid… "Ameri… Anas r… Vege… Long    Wetland No      Short      3.09     9  
##  2 Anatid… "Ameri… Anas a… Vege… Middle  Wetland No      Short      2.88     7.5
##  3 Anatid… "Barro… Buceph… Inve… Middle  Wetland No      Modera…    2.96    10.5
##  4 Anatid… "Black… Branta… Vege… Long    Wetland No      Modera…    3.11     3.5
##  5 Anatid… "Black… Melani… Inve… Middle  Wetland No      Modera…    3.02     9.5
##  6 Anatid… "Black… Dendro… Vege… Short   Wetland No      Withdr…    2.88    13.5
##  7 Anatid… "Blue-… Anas d… Vege… Middle  Wetland No      Modera…    2.56    10  
##  8 Anatid… "Buffl… Buceph… Inve… Middle  Wetland No      Short      2.6      8.5
##  9 Anatid… "Cackl… Branta… Vege… Middle  Wetland Yes     Short      3.45     5  
## 10 Anatid… "Canva… Aythya… Vege… Middle  Wetland No      Short      3.08     8  
## # … with 34 more rows, 11 more variables: mean_age_at_sexual_maturity <dbl>,
## #   population_size <dbl>, winter_range_area <dbl>, range_in_cbc <dbl>,
## #   strata <dbl>, circles <dbl>, feeder_bird <chr>, median_trend <dbl>,
## #   lower_95_percent_ci <dbl>, upper_95_percent_ci <dbl>, order <chr>, and
## #   abbreviated variable names ¹​common_name, ²​scientific_name,
## #   ³​life_expectancy, ⁴​urban_affiliate, ⁵​migratory_strategy, ⁶​log10_mass,
## #   ⁷​mean_eggs_per_clutch
```
…
How is migratory strategy related to habitat and longevity?

```r
ecosphere %>% 
  group_by(migratory_strategy,life_expectancy, habitat) %>% 
  summarize(migratory_strategy, life_expectancy, habitat)
```

```
## `summarise()` has grouped output by 'migratory_strategy', 'life_expectancy',
## 'habitat'. You can override using the `.groups` argument.
```

```
## # A tibble: 551 × 3
## # Groups:   migratory_strategy, life_expectancy, habitat [76]
##    migratory_strategy life_expectancy habitat  
##    <chr>              <chr>           <chr>    
##  1 Irruptive          Long            Grassland
##  2 Irruptive          Middle          Grassland
##  3 Irruptive          Middle          Woodland 
##  4 Irruptive          Middle          Woodland 
##  5 Irruptive          Middle          Woodland 
##  6 Irruptive          Middle          Woodland 
##  7 Irruptive          Short           Shrubland
##  8 Irruptive          Short           Shrubland
##  9 Irruptive          Short           Various  
## 10 Irruptive          Short           Woodland 
## # … with 541 more rows
```
…
