…
7. We are interested in two groups; small and large mammals. Let's define small as less than or equal to 1kg body weight and large as greater than or equal to 200kg body weight. Make two new dataframes (large and small) based on these parameters.

```r
small <- filter(sleep, `body weight in kg`<=1) #Make small dataframe
small
```

```
## # A tibble: 21 × 11
##    species       body …¹ brain…² slow …³ parad…⁴ total…⁵ maxim…⁶ gesta…⁷ preda…⁸
##    <chr>           <dbl>   <dbl>   <dbl>   <dbl>   <dbl>   <dbl>   <dbl>   <dbl>
##  1 African gian…   1         6.6     6.3     2       8.3     4.5      42       3
##  2 Arctic groun…   0.92      5.7  -999    -999      16.5  -999        25       5
##  3 Big brown bat   0.023     0.3    15.8     3.9    19.7    19        35       1
##  4 Chinchilla      0.425     6.4    11       1.5    12.5     7       112       5
##  5 Desert hedge…   0.55      2.4     7.6     2.7    10.3  -999      -999       2
##  6 Eastern Amer…   0.075     1.2     6.3     2.1     8.4     3.5      42       1
##  7 European hed…   0.785     3.5     6.6     4.1    10.7     6        42       2
##  8 Galago          0.2       5       9.5     1.2    10.7    10.4     120       2
##  9 Golden hamst…   0.12      1      11       3.4    14.4     3.9      16       3
## 10 Ground squir…   0.101     4      10.4     3.4    13.8     9        28       5
## # … with 11 more rows, 2 more variables: `sleep exposure index (1-5)` <dbl>,
## #   `overall danger index (1-5)` <dbl>, and abbreviated variable names
## #   ¹​`body weight in kg`, ²​`brain weight in g`,
## #   ³​`slow wave ("nondreaming") sleep (hrs/day)`,
## #   ⁴​`paradoxical ("dreaming") sleep (hrs/day)`,
## #   ⁵​`total sleep (hrs/day)  (sum of slow wave and paradoxical sleep)`,
## #   ⁶​`maximum life span (years)`, ⁷​`gestation time (days)`, …
```
…
