…
**2. Among the interesting variables in gapminder is life expectancy. How has global life expectancy changed between 1952 and 2007?**


```r
gapminder%>% 
  group_by(year,life_exp) %>% 
  summarise(n=n(), .groups='keep')
```

```
## # A tibble: 1,700 × 3
## # Groups:   year, life_exp [1,700]
##     year life_exp     n
##    <int>    <dbl> <int>
##  1  1952     28.8     1
##  2  1952     30       1
##  3  1952     30.0     1
##  4  1952     30.3     1
##  5  1952     31.3     1
##  6  1952     32.0     1
##  7  1952     32.5     1
##  8  1952     32.5     1
##  9  1952     33.0     1
## 10  1952     33.6     1
## # … with 1,690 more rows
```
…
